5sem/dscheme/l4/quartus/dff_myq/simulation/qsim/dff_my.msim.vcd
$comment
	File created using the following command:
		vcd file dff_my.msim.vcd -direction
$end
$date
	Sun Nov 30 21:49:35 2025
$end
$version
	ModelSim Version 10.5b
$end
$timescale
	1ps
$end

$scope module dff_my_vlg_vec_tst $end
$var reg 1 ! Data $end
$var reg 1 " clock $end
$var reg 1 # set $end
$var wire 1 $ q $end

$scope module i1 $end
$var wire 1 % gnd $end
$var wire 1 & vcc $end
$var wire 1 ' unknown $end
$var tri1 1 ( devclrn $end
$var tri1 1 ) devpor $end
$var tri1 1 * devoe $end
$var wire 1 + q~output_o $end
$var wire 1 , clock~input_o $end
$var wire 1 - set~input_o $end
$var wire 1 . Data~input_o $end
$var wire 1 / q~0_combout $end
$var wire 1 0 q~reg0_q $end
$upscope $end
$upscope $end
$enddefinitions $end
#0
$dumpvars
0!
0"
0#
x$
0%
1&
x'
1(
1)
1*
x+
0,
0-
0.
x/
00
$end
#3711
0+
0$
#3981
0/
#10000
1!
#10685
1.
#14055
1/
#20000
1"
#20685
1,
#30000
0!
#30801
0.
#34429
0/
#40000
0"
#40801
0,
#60000
1"
#60685
1,
#70000
1#
1!
#70685
1.
1-
#74055
1/
#80000
0"
#80801
0,
#82265
10
#85970
1+
1$
#90000
0#
0!
#90801
0.
0-
#94782
0/
#100000
1"
#100685
1,
#120000
0"
#120801
0,
#122265
00
#125976
0+
0$
#140000
1"
#140685
1,
#150000
1#
1!
#150685
1.
1-
#154055
1/
#160000
0"
#160801
0,
#162265
10
#165970
1+
1$
#170000
0#
0!
#170801
0.
0-
#174782
0/
#180000
1"
#180685
1,
#190000
1#
1!
#190685
1.
1-
#194055
1/
#200000
0"
#200801
0,
#210000
0#
0!
#210801
0.
0-
#214782
0/
#220000
1"
#220685
1,
#240000
0"
#240801
0,
#242265
00
#245976
0+
0$
#260000
1"
#260685
1,
#270000
1#
1!
#270685
1.
1-
#274055
1/
#280000
0"
#280801
0,
#282265
10
#285970
1+
1$
#290000
0#
0!
#290801
0.
0-
#294782
0/
#300000
1"
#300685
1,
#310000
1!
#310685
1.
#314055
1/
#320000
0"
#320801
0,
#330000
0!
#330801
0.
#334429
0/
#340000
1"
#340685
1,
#360000
0"
#360801
0,
#362265
00
#365976
0+
0$
#380000
1"
#380685
1,
#390000
1!
#390685
1.
#394055
1/
#400000
0"
#400801
0,
#402265
10
#405970
1+
1$
#410000
0!
#410801
0.
#414429
0/
#420000
1"
#420685
1,
#440000
0"
#440801
0,
#442265
00
#445976
0+
0$
#450000
1#
#450685
1-
#454371
1/
#460000
1"
#460685
1,
#470000
0#
#470801
0-
#474782
0/
#480000
0"
#480801
0,
#500000
1"
#500685
1,
#520000
0"
#520801
0,
#540000
1"
#540685
1,
#550000
1#
#550685
1-
#554371
1/
#560000
0"
#560801
0,
#562265
10
#565970
1+
1$
#570000
0#
#570801
0-
#574782
0/
#580000
1"
#580685
1,
#600000
0"
#600801
0,
#602265
00
#605976
0+
0$
#620000
1"
#620685
1,
#640000
0"
#640801
0,
#660000
1"
#660685
1,
#680000
0"
#680801
0,
#700000
1"
#700685
1,
#720000
0"
#720801
0,
#740000
1"
#740685
1,
#760000
0"
#760801
0,
#780000
1"
#780685
1,
#800000
0"
#800801
0,
#820000
1"
#820685
1,
#840000
0"
#840801
0,
#860000
1"
#860685
1,
#880000
0"
#880801
0,
#900000
1"
#900685
1,
#920000
0"
#920801
0,
#940000
1"
#940685
1,
#960000
0"
#960801
0,
#980000
1"
#980685
1,
#1000000
0"
#1000801
0,
#1020000
1"
#1020685
1,
#1040000
0"
#1040801
0,
#1060000
1"
#1060685
1,
#1080000
0"
#1080801
0,
#1100000
1"
#1100685
1,
#1120000
0"
#1120801
0,
#1140000
1"
#1140685
1,
#1160000
0"
#1160801
0,
#1180000
1"
#1180685
1,
