5sem/dscheme/l4/quartus/dff_my/simulation/qsim/dff_my.msim.vcd
$comment
	File created using the following command:
		vcd file dff_my.msim.vcd -direction
$end
$date
	Sun Nov 30 21:35:00 2025
$end
$version
	ModelSim Version 10.5b
$end
$timescale
	1ps
$end

$scope module dff_my_vlg_vec_tst $end
$var reg 1 ! Data $end
$var reg 1 " clock $end
$var wire 1 # q $end

$scope module i1 $end
$var wire 1 $ gnd $end
$var wire 1 % vcc $end
$var wire 1 & unknown $end
$var tri1 1 ' devclrn $end
$var tri1 1 ( devpor $end
$var tri1 1 ) devoe $end
$var wire 1 * q~output_o $end
$var wire 1 + clock~input_o $end
$var wire 1 , Data~input_o $end
$var wire 1 - q~reg0feeder_combout $end
$var wire 1 . q~reg0_q $end
$upscope $end
$upscope $end
$enddefinitions $end
#0
$dumpvars
0!
0"
x#
0$
1%
x&
1'
1(
1)
x*
0+
0,
x-
0.
$end
#3856
0*
0#
#4331
0-
#10000
1!
#10801
1,
#14758
1-
#20000
1"
#20801
1+
#30000
0!
#30821
0,
#35152
0-
#40000
0"
#40821
0+
#60000
1"
#60801
1+
#70000
1!
#70801
1,
#74758
1-
#80000
0"
#80821
0+
#82592
1.
#86385
1*
1#
#90000
0!
#90821
0,
#95152
0-
#100000
1"
#100801
1+
#120000
0"
#120821
0+
#122592
0.
#126448
0*
0#
#140000
1"
#140801
1+
#150000
1!
#150801
1,
#154758
1-
#160000
0"
#160821
0+
#162592
1.
#166385
1*
1#
#170000
0!
#170821
0,
#175152
0-
#180000
1"
#180801
1+
#190000
1!
#190801
1,
#194758
1-
#200000
0"
#200821
0+
#210000
0!
#210821
0,
#215152
0-
#220000
1"
#220801
1+
#240000
0"
#240821
0+
#242592
0.
#246448
0*
0#
#260000
1"
#260801
1+
#280000
0"
#280821
0+
#300000
1"
#300801
1+
#320000
0"
#320821
0+
#340000
1"
#340801
1+
#360000
0"
#360821
0+
#380000
1"
#380801
1+
#400000
0"
#400821
0+
#420000
1"
#420801
1+
#440000
0"
#440821
0+
#460000
1"
#460801
1+
#480000
0"
#480821
0+
#500000
1"
#500801
1+
#520000
0"
#520821
0+
#540000
1"
#540801
1+
#560000
0"
#560821
0+
#580000
1"
#580801
1+
#600000
0"
#600821
0+
#620000
1"
#620801
1+
#640000
0"
#640821
0+
#660000
1"
#660801
1+
#680000
0"
#680821
0+
#700000
1"
#700801
1+
#720000
0"
#720821
0+
#740000
1"
#740801
1+
#760000
0"
#760821
0+
#780000
1"
#780801
1+
#800000
0"
#800821
0+
#820000
1"
#820801
1+
#840000
0"
#840821
0+
#860000
1"
#860801
1+
#880000
0"
#880821
0+
#900000
1"
#900801
1+
#920000
0"
#920821
0+
#940000
1"
#940801
1+
#960000
0"
#960821
0+
#980000
1"
#980801
1+
#1000000
0"
#1000821
0+
#1020000
1"
#1020801
1+
#1040000
0"
#1040821
0+
#1060000
1"
#1060801
1+
#1080000
0"
#1080821
0+
#1100000
1"
#1100801
1+
#1120000
0"
#1120821
0+
#1140000
1"
#1140801
1+
#1160000
0"
#1160821
0+
#1180000
1"
#1180801
1+
