5sem/dscheme/l4/quartus/jkff_my/simulation/qsim/jkff_my.msim.vcd
$comment
	File created using the following command:
		vcd file jkff_my.msim.vcd -direction
$end
$date
	Sun Nov 30 22:02:33 2025
$end
$version
	ModelSim Version 10.5b
$end
$timescale
	1ps
$end

$scope module jkff_my_vlg_vec_tst $end
$var reg 1 ! J $end
$var reg 1 " K $end
$var reg 1 # clock $end
$var wire 1 $ q $end

$scope module i1 $end
$var wire 1 % gnd $end
$var wire 1 & vcc $end
$var wire 1 ' unknown $end
$var tri1 1 ( devclrn $end
$var tri1 1 ) devpor $end
$var tri1 1 * devoe $end
$var wire 1 + q~output_o $end
$var wire 1 , clock~input_o $end
$var wire 1 - J~input_o $end
$var wire 1 . K~input_o $end
$var wire 1 / Mux0~0_combout $end
$var wire 1 0 q~reg0_q $end
$upscope $end
$upscope $end
$enddefinitions $end
#0
$dumpvars
0!
0"
0#
x$
0%
1&
x'
1(
1)
1*
x+
0,
0-
0.
x/
00
$end
#3564
0+
0$
#3804
0/
#10000
1#
#10622
1,
#15000
1!
#15622
1-
#19154
1/
#20000
0#
#20732
0,
#25000
0!
#25732
0-
#29536
0/
#30000
1#
#30622
1,
#35000
1"
#35622
1.
#40000
0#
#40732
0,
#45000
0"
#45732
0.
#50000
1#
#50622
1,
#55000
1!
1"
#55622
1.
1-
#59154
1/
#60000
0#
#60732
0,
#65000
0!
0"
#65732
0.
0-
#69536
0/
#70000
1#
#70622
1,
#80000
0#
#80732
0,
#85000
1"
#85622
1.
#90000
1#
#90622
1,
#95000
0"
#95732
0.
#100000
0#
#100732
0,
#105000
1!
#105622
1-
#109154
1/
#110000
1#
#110622
1,
#112083
10
#115000
0!
#115693
1+
1$
#115732
0-
#120000
0#
#120732
0,
#125000
1"
#125622
1.
#128553
0/
#130000
1#
#130622
1,
#132083
00
#135000
0"
#135647
0+
0$
#135732
0.
#140000
0#
#140732
0,
#145000
1!
#145622
1-
#149154
1/
#150000
1#
#150622
1,
#152083
10
#155000
0!
#155693
1+
1$
#155732
0-
#160000
0#
#160732
0,
#170000
1#
#170622
1,
#180000
0#
#180732
0,
#190000
1#
#190622
1,
#200000
0#
#200732
0,
#205000
1!
#205622
1-
#210000
1#
#210622
1,
#215000
0!
#215732
0-
#220000
0#
#220732
0,
#225000
1"
1!
#225622
1-
1.
#228553
0/
#230000
1#
#230622
1,
#232083
00
#232496
1/
#235000
0"
0!
#235647
0+
0$
#235732
0-
0.
#239536
0/
#240000
0#
#240732
0,
#250000
1#
#250622
1,
#260000
0#
#260732
0,
#265000
1"
1!
#265622
1-
1.
#269154
1/
#270000
1#
#270622
1,
#272083
10
#272517
0/
#275000
0"
0!
#275693
1+
1$
#275732
0-
0.
#278936
1/
#280000
0#
#280732
0,
#290000
1#
#290622
1,
#300000
0#
#300732
0,
#310000
1#
#310622
1,
#320000
0#
#320732
0,
#330000
1#
#330622
1,
#340000
0#
#340732
0,
#350000
1#
#350622
1,
#360000
0#
#360732
0,
#370000
1#
#370622
1,
#380000
0#
#380732
0,
#390000
1#
#390622
1,
#400000
0#
#400732
0,
#410000
1#
#410622
1,
#420000
0#
#420732
0,
#430000
1#
#430622
1,
#440000
0#
#440732
0,
#450000
1#
#450622
1,
#460000
0#
#460732
0,
#470000
1#
#470622
1,
#480000
0#
#480732
0,
#490000
1#
#490622
1,
#500000
0#
#500732
0,
#510000
1#
#510622
1,
#520000
0#
#520732
0,
#530000
1#
#530622
1,
#540000
0#
#540732
0,
#550000
1#
#550622
1,
#560000
0#
#560732
0,
#570000
1#
#570622
1,
#580000
0#
#580732
0,
#590000
1#
#590622
1,
#600000
0#
#600732
0,
#610000
1#
#610622
1,
#620000
0#
#620732
0,
#630000
1#
#630622
1,
#640000
0#
#640732
0,
#650000
1#
#650622
1,
#660000
0#
#660732
0,
#670000
1#
#670622
1,
#680000
0#
#680732
0,
#690000
1#
#690622
1,
